<?xml version="1.0" standalone="no"?>
<!DOCTYPE svg PUBLIC "-//W3C//DTD SVG 20010904//EN"
 "http://www.w3.org/TR/2001/REC-SVG-20010904/DTD/svg10.dtd">
<svg version="1.0" xmlns="http://www.w3.org/2000/svg"
 width="260.000000pt" height="260.000000pt" viewBox="0 0 260.000000 260.000000"
 preserveAspectRatio="xMidYMid meet">
<metadata>
Created by potrace 1.11, written by Peter Selinger 2001-2013
</metadata>
<g transform="translate(0.000000,260.000000) scale(0.100000,-0.100000)"
fill="#000000" stroke="none">
<path d="M1440 2593 c-90 -14 -258 -62 -278 -78 -2 -2 20 -33 47 -70 52 -69
124 -203 156 -288 l18 -47 61 7 c118 14 277 8 384 -13 l33 -7 -21 54 c-32 82
-115 236 -140 259 -3 3 -18 23 -35 45 -16 22 -54 64 -83 93 -56 53 -68 57
-142 45z"/>
<path d="M1075 2473 c-37 -19 -128 -75 -135 -83 -3 -3 -18 -15 -33 -27 -16
-12 -47 -38 -68 -58 l-40 -36 35 -92 c19 -51 43 -132 53 -180 9 -48 21 -87 26
-87 5 0 27 13 50 29 91 62 297 151 349 151 17 0 20 4 15 30 -14 66 -105 236
-180 333 -33 42 -31 42 -72 20z"/>
<path d="M707 2158 c-98 -138 -159 -268 -192 -412 -28 -121 -34 -247 -15 -315
l12 -45 47 95 c67 134 137 229 243 330 l59 56 -6 49 c-14 110 -75 304 -96 304
-4 0 -28 -28 -52 -62z"/>
<path d="M1438 2070 c-15 -4 -29 -5 -32 -2 -10 9 -7 -19 10 -103 16 -80 23
-312 10 -351 -6 -19 -2 -19 57 -14 111 11 250 3 356 -21 30 -7 48 -6 54 0 18
18 17 296 -2 385 -17 87 -13 83 -106 102 -47 9 -317 13 -347 4z"/>
<path d="M534 2032 c-156 -102 -278 -294 -340 -537 -25 -98 -28 -127 -27 -260
0 -128 4 -164 26 -248 82 -311 267 -575 523 -749 180 -122 410 -208 623 -232
l54 -6 -74 56 c-510 393 -817 837 -874 1269 -15 110 -12 289 5 375 22 109 70
231 120 309 22 34 36 61 31 61 -4 0 -34 -17 -67 -38z"/>
<path d="M1935 1993 c22 -134 26 -278 10 -390 -7 -51 -6 -52 22 -59 79 -19
258 -118 348 -192 l29 -24 23 61 c24 65 63 241 63 288 0 22 -16 43 -72 97
-110 104 -233 183 -361 231 l-68 25 6 -37z"/>
<path d="M792 1736 c-80 -86 -142 -174 -190 -271 -60 -122 -66 -147 -47 -187
31 -60 89 -158 95 -158 11 0 90 127 119 190 33 75 66 179 75 236 3 21 8 50 11
64 10 45 13 180 5 185 -4 3 -35 -24 -68 -59z"/>
<path d="M1925 1500 c-4 -6 -4 -10 -1 -10 3 0 -9 -39 -25 -87 -32 -93 -85
-201 -131 -270 -35 -52 -35 -63 0 -64 52 -1 188 -39 268 -74 l58 -26 43 43
c49 48 128 159 163 228 l23 44 -39 34 c-22 19 -76 56 -121 82 -71 43 -111 62
-210 101 -13 5 -25 4 -28 -1z"/>
<path d="M552 1070 c40 -111 101 -226 189 -356 147 -218 392 -462 657 -654 73
-52 73 -52 130 -46 86 10 113 16 149 33 53 25 116 87 148 144 27 49 30 62 30
149 0 79 -4 103 -24 143 -28 58 -88 120 -139 146 -36 18 -39 18 -112 -1 -77
-19 -269 -27 -342 -15 -158 28 -277 75 -403 160 -63 43 -183 159 -213 205 -31
49 -75 107 -70 92z"/>
<path d="M1497 1034 c-1 -1 -24 -4 -52 -7 -156 -17 -370 -100 -466 -181 l-29
-25 33 -19 c72 -45 153 -82 177 -82 39 0 219 93 306 159 88 65 170 146 157
154 -7 4 -121 6 -126 1z"/>
<path d="M1614 947 c-86 -88 -191 -163 -304 -218 -38 -19 -70 -37 -70 -41 0
-16 108 -30 189 -24 198 14 391 89 568 220 l66 50 -44 19 c-71 30 -205 66
-267 72 l-57 5 -81 -83z"/>
</g>
</svg>
